{
	"list": [{
		"account": "000816",
		"createTime": {
			"date": 10,
			"day": 2,
			"hours": 11,
			"minutes": 26,
			"month": 3,
			"seconds": 34,
			"time": 1523330794000,
			"timezoneOffset": -480,
			"year": 118
		},
		"demId": 1,
		"email": "515957099@qq.com",
		"entryDate": null,
		"fromType": 0,
		"fullname": "周福男",
		"hasSyncToWx": 0,
		"isExpired": 0,
		"isLock": 0,
		"jobId": 10000005400852,
		"jobName": "信息工程师",
		"mobile": "",
		"orgId": 10000000000045,
		"orgName": "信息部",
		"password": "a4ayc/80/OGda4BO/1o/V0etpOqiLx1JwB5S3beHW0s=",
		"phone": "",
		"picture": "",
		"pwdUpdTime": {
			"date": 19,
			"day": 4,
			"hours": 15,
			"minutes": 10,
			"month": 3,
			"seconds": 24,
			"time": 1524121824000,
			"timezoneOffset": -480,
			"year": 118
		},
		"sex": "1",
		"status": 1,
		"superName": "盖志强",
		"superUserId": 10000005881942,
		"userId": 10000007725965,
		"userStatus": "正式员工",
		"weixinid": ""
	}, {
		"account": "000851",
		"createTime": {
			"date": 8,
			"day": 0,
			"hours": 15,
			"minutes": 22,
			"month": 3,
			"seconds": 16,
			"time": 1523172136000,
			"timezoneOffset": -480,
			"year": 118
		},
		"demId": 10000000142354,
		"email": "515957099@qq.com",
		"entryDate": null,
		"fromType": 0,
		"fullname": "刘振生",
		"hasSyncToWx": 0,
		"isExpired": 0,
		"isLock": 0,
		"jobId": 10000005400937,
		"jobName": "IOS软件工程师",
		"mobile": "",
		"orgId": 10000000142358,
		"orgName": "测试",
		"password": "a4ayc/80/OGda4BO/1o/V0etpOqiLx1JwB5S3beHW0s=",
		"phone": "",
		"picture": "",
		"pwdUpdTime": {
			"date": 13,
			"day": 5,
			"hours": 13,
			"minutes": 49,
			"month": 3,
			"seconds": 53,
			"time": 1523598593000,
			"timezoneOffset": -480,
			"year": 118
		},
		"sex": "1",
		"status": 1,
		"superName": "",
		"superUserId": 0,
		"userId": 10000007669862,
		"userStatus": "正式员工",
		"weixinid": ""
	}, {
		"account": "000851",
		"createTime": {
			"date": 8,
			"day": 0,
			"hours": 15,
			"minutes": 22,
			"month": 3,
			"seconds": 16,
			"time": 1523172136000,
			"timezoneOffset": -480,
			"year": 118
		},
		"demId": 1,
		"email": "515957099@qq.com",
		"entryDate": null,
		"fromType": 0,
		"fullname": "刘振生",
		"hasSyncToWx": 0,
		"isExpired": 0,
		"isLock": 0,
		"jobId": 10000005400861,
		"jobName": "工艺工程师",
		"mobile": "",
		"orgId": 10000000090021,
		"orgName": "工艺工程部",
		"password": "a4ayc/80/OGda4BO/1o/V0etpOqiLx1JwB5S3beHW0s=",
		"phone": "",
		"picture": "",
		"pwdUpdTime": {
			"date": 13,
			"day": 5,
			"hours": 13,
			"minutes": 49,
			"month": 3,
			"seconds": 53,
			"time": 1523598593000,
			"timezoneOffset": -480,
			"year": 118
		},
		"sex": "1",
		"status": 1,
		"superName": "",
		"superUserId": 0,
		"userId": 10000007669862,
		"userStatus": "正式员工",
		"weixinid": ""
	}, {
		"account": "000869",
		"createTime": {
			"date": 29,
			"day": 4,
			"hours": 9,
			"minutes": 25,
			"month": 2,
			"seconds": 48,
			"time": 1522286748000,
			"timezoneOffset": -480,
			"year": 118
		},
		"demId": 1,
		"email": "515957099@qq.com",
		"entryDate": {
			"date": 26,
			"day": 1,
			"hours": 0,
			"minutes": 0,
			"month": 2,
			"seconds": 0,
			"time": 1521993600000,
			"timezoneOffset": -480,
			"year": 118
		},
		"fromType": 0,
		"fullname": "杨作征",
		"hasSyncToWx": 0,
		"isExpired": 0,
		"isLock": 0,
		"jobId": 10000005400852,
		"jobName": "信息工程师",
		"mobile": "",
		"orgId": 10000000000045,
		"orgName": "信息部",
		"password": "a4ayc/80/OGda4BO/1o/V0etpOqiLx1JwB5S3beHW0s=",
		"phone": "",
		"picture": "",
		"pwdUpdTime": {
			"date": 17,
			"day": 2,
			"hours": 9,
			"minutes": 38,
			"month": 3,
			"seconds": 18,
			"time": 1523929098000,
			"timezoneOffset": -480,
			"year": 118
		},
		"sex": "1",
		"status": 1,
		"superName": "盖志强",
		"superUserId": 10000005881942,
		"userId": 10000007485909,
		"userStatus": "正式员工",
		"weixinid": ""
	}, {
		"account": "000828",
		"createTime": {
			"date": 27,
			"day": 2,
			"hours": 16,
			"minutes": 0,
			"month": 2,
			"seconds": 3,
			"time": 1522137603000,
			"timezoneOffset": -480,
			"year": 118
		},
		"demId": 0,
		"email": "515957099@qq.com",
		"entryDate": null,
		"fromType": 0,
		"fullname": "赵春辉",
		"hasSyncToWx": 0,
		"isExpired": 0,
		"isLock": 0,
		"jobId": 0,
		"jobName": "",
		"mobile": "",
		"orgId": 0,
		"orgName": "",
		"password": "a4ayc/80/OGda4BO/1o/V0etpOqiLx1JwB5S3beHW0s=",
		"phone": "",
		"picture": "",
		"pwdUpdTime": {
			"date": 27,
			"day": 2,
			"hours": 16,
			"minutes": 0,
			"month": 2,
			"seconds": 3,
			"time": 1522137603000,
			"timezoneOffset": -480,
			"year": 118
		},
		"sex": "1",
		"status": 1,
		"superName": "",
		"superUserId": 0,
		"userId": 10000007433492,
		"userStatus": "正式员工",
		"weixinid": ""
	}, {
		"account": "000871",
		"createTime": {
			"date": 27,
			"day": 2,
			"hours": 9,
			"minutes": 28,
			"month": 2,
			"seconds": 5,
			"time": 1522114085000,
			"timezoneOffset": -480,
			"year": 118
		},
		"demId": 0,
		"email": "515957099@qq.com",
		"entryDate": null,
		"fromType": 0,
		"fullname": "周笑天",
		"hasSyncToWx": 0,
		"isExpired": 0,
		"isLock": 0,
		"jobId": 0,
		"jobName": "",
		"mobile": "",
		"orgId": 0,
		"orgName": "",
		"password": "a4ayc/80/OGda4BO/1o/V0etpOqiLx1JwB5S3beHW0s=",
		"phone": "",
		"picture": "",
		"pwdUpdTime": {
			"date": 27,
			"day": 2,
			"hours": 9,
			"minutes": 28,
			"month": 2,
			"seconds": 5,
			"time": 1522114085000,
			"timezoneOffset": -480,
			"year": 118
		},
		"sex": "1",
		"status": 1,
		"superName": "",
		"superUserId": 0,
		"userId": 10000007424104,
		"userStatus": "正式员工",
		"weixinid": ""
	}, {
		"account": "111112",
		"createTime": {
			"date": 19,
			"day": 1,
			"hours": 14,
			"minutes": 36,
			"month": 2,
			"seconds": 40,
			"time": 1521441400000,
			"timezoneOffset": -480,
			"year": 118
		},
		"demId": 0,
		"email": "515957099@qq.com",
		"entryDate": null,
		"fromType": 0,
		"fullname": "李雪冲",
		"hasSyncToWx": 0,
		"isExpired": 0,
		"isLock": 0,
		"jobId": 0,
		"jobName": "",
		"mobile": "",
		"orgId": 0,
		"orgName": "",
		"password": "a4ayc/80/OGda4BO/1o/V0etpOqiLx1JwB5S3beHW0s=",
		"phone": "",
		"picture": "",
		"pwdUpdTime": {
			"date": 19,
			"day": 1,
			"hours": 14,
			"minutes": 36,
			"month": 2,
			"seconds": 40,
			"time": 1521441400000,
			"timezoneOffset": -480,
			"year": 118
		},
		"sex": "1",
		"status": 1,
		"superName": "",
		"superUserId": 0,
		"userId": 10000007097061,
		"userStatus": "正式员工",
		"weixinid": ""
	}, {
		"account": "111111",
		"createTime": {
			"date": 19,
			"day": 1,
			"hours": 14,
			"minutes": 32,
			"month": 2,
			"seconds": 49,
			"time": 1521441169000,
			"timezoneOffset": -480,
			"year": 118
		},
		"demId": 0,
		"email": "515957099@qq.com",
		"entryDate": null,
		"fromType": 0,
		"fullname": "潘祖田",
		"hasSyncToWx": 0,
		"isExpired": 0,
		"isLock": 0,
		"jobId": 0,
		"jobName": "",
		"mobile": "",
		"orgId": 0,
		"orgName": "",
		"password": "a4ayc/80/OGda4BO/1o/V0etpOqiLx1JwB5S3beHW0s=",
		"phone": "",
		"picture": "",
		"pwdUpdTime": {
			"date": 19,
			"day": 1,
			"hours": 14,
			"minutes": 32,
			"month": 2,
			"seconds": 49,
			"time": 1521441169000,
			"timezoneOffset": -480,
			"year": 118
		},
		"sex": "1",
		"status": 1,
		"superName": "",
		"superUserId": 0,
		"userId": 10000007097016,
		"userStatus": "正式员工",
		"weixinid": ""
	}, {
		"account": "000827",
		"createTime": {
			"date": 15,
			"day": 4,
			"hours": 17,
			"minutes": 28,
			"month": 2,
			"seconds": 58,
			"time": 1521106138000,
			"timezoneOffset": -480,
			"year": 118
		},
		"demId": 0,
		"email": "515957099@qq.com",
		"entryDate": null,
		"fromType": 0,
		"fullname": "相磊",
		"hasSyncToWx": 0,
		"isExpired": 0,
		"isLock": 0,
		"jobId": 0,
		"jobName": "",
		"mobile": "",
		"orgId": 0,
		"orgName": "",
		"password": "a4ayc/80/OGda4BO/1o/V0etpOqiLx1JwB5S3beHW0s=",
		"phone": "",
		"picture": "",
		"pwdUpdTime": {
			"date": 15,
			"day": 4,
			"hours": 17,
			"minutes": 28,
			"month": 2,
			"seconds": 58,
			"time": 1521106138000,
			"timezoneOffset": -480,
			"year": 118
		},
		"sex": "1",
		"status": 1,
		"superName": "",
		"superUserId": 0,
		"userId": 10000007028360,
		"userStatus": "正式员工",
		"weixinid": ""
	}, {
		"account": "000854",
		"createTime": {
			"date": 14,
			"day": 3,
			"hours": 11,
			"minutes": 9,
			"month": 2,
			"seconds": 36,
			"time": 1520996976000,
			"timezoneOffset": -480,
			"year": 118
		},
		"demId": 0,
		"email": "515957099@qq.com",
		"entryDate": null,
		"fromType": 0,
		"fullname": "曾令浩",
		"hasSyncToWx": 0,
		"isExpired": 0,
		"isLock": 0,
		"jobId": 0,
		"jobName": "",
		"mobile": "",
		"orgId": 0,
		"orgName": "",
		"password": "a4ayc/80/OGda4BO/1o/V0etpOqiLx1JwB5S3beHW0s=",
		"phone": "",
		"picture": "",
		"pwdUpdTime": {
			"date": 14,
			"day": 3,
			"hours": 11,
			"minutes": 10,
			"month": 2,
			"seconds": 21,
			"time": 1520997021000,
			"timezoneOffset": -480,
			"year": 118
		},
		"sex": "1",
		"status": 1,
		"superName": "",
		"superUserId": 0,
		"userId": 10000007008166,
		"userStatus": "正式员工",
		"weixinid": ""
	}, {
		"account": "000849",
		"createTime": {
			"date": 13,
			"day": 2,
			"hours": 10,
			"minutes": 24,
			"month": 2,
			"seconds": 13,
			"time": 1520907853000,
			"timezoneOffset": -480,
			"year": 118
		},
		"demId": 1,
		"email": "515957099@qq.com",
		"entryDate": null,
		"fromType": 0,
		"fullname": "刘艾璃",
		"hasSyncToWx": 0,
		"isExpired": 0,
		"isLock": 0,
		"jobId": 10000005400847,
		"jobName": "商务专员",
		"mobile": "",
		"orgId": 10000000080027,
		"orgName": "商务部",
		"password": "a4ayc/80/OGda4BO/1o/V0etpOqiLx1JwB5S3beHW0s=",
		"phone": "",
		"picture": "",
		"pwdUpdTime": {
			"date": 13,
			"day": 5,
			"hours": 16,
			"minutes": 28,
			"month": 3,
			"seconds": 55,
			"time": 1523608135000,
			"timezoneOffset": -480,
			"year": 118
		},
		"sex": "0",
		"status": 1,
		"superName": "李娜",
		"superUserId": 10000000000038,
		"userId": 10000006967134,
		"userStatus": "正式员工",
		"weixinid": ""
	}, {
		"account": "000853",
		"createTime": {
			"date": 13,
			"day": 2,
			"hours": 10,
			"minutes": 23,
			"month": 2,
			"seconds": 34,
			"time": 1520907814000,
			"timezoneOffset": -480,
			"year": 118
		},
		"demId": 1,
		"email": "515957099@qq.com",
		"entryDate": null,
		"fromType": 0,
		"fullname": "张梦琪",
		"hasSyncToWx": 0,
		"isExpired": 0,
		"isLock": 0,
		"jobId": 10000005400847,
		"jobName": "商务专员",
		"mobile": "",
		"orgId": 10000000080027,
		"orgName": "商务部",
		"password": "a4ayc/80/OGda4BO/1o/V0etpOqiLx1JwB5S3beHW0s=",
		"phone": "",
		"picture": "",
		"pwdUpdTime": {
			"date": 13,
			"day": 5,
			"hours": 16,
			"minutes": 29,
			"month": 3,
			"seconds": 21,
			"time": 1523608161000,
			"timezoneOffset": -480,
			"year": 118
		},
		"sex": "0",
		"status": 1,
		"superName": "李娜",
		"superUserId": 10000000000038,
		"userId": 10000006967119,
		"userStatus": "正式员工",
		"weixinid": ""
	}, {
		"account": "000850",
		"createTime": {
			"date": 13,
			"day": 2,
			"hours": 10,
			"minutes": 22,
			"month": 2,
			"seconds": 47,
			"time": 1520907767000,
			"timezoneOffset": -480,
			"year": 118
		},
		"demId": 1,
		"email": "515957099@qq.com",
		"entryDate": null,
		"fromType": 0,
		"fullname": "崔世慧",
		"hasSyncToWx": 0,
		"isExpired": 0,
		"isLock": 0,
		"jobId": 10000005400847,
		"jobName": "商务专员",
		"mobile": "",
		"orgId": 10000000080027,
		"orgName": "商务部",
		"password": "a4ayc/80/OGda4BO/1o/V0etpOqiLx1JwB5S3beHW0s=",
		"phone": "",
		"picture": "",
		"pwdUpdTime": {
			"date": 13,
			"day": 5,
			"hours": 16,
			"minutes": 29,
			"month": 3,
			"seconds": 48,
			"time": 1523608188000,
			"timezoneOffset": -480,
			"year": 118
		},
		"sex": "0",
		"status": 1,
		"superName": "李娜",
		"superUserId": 10000000000038,
		"userId": 10000006967104,
		"userStatus": "正式员工",
		"weixinid": ""
	}, {
		"account": "000826",
		"createTime": {
			"date": 6,
			"day": 2,
			"hours": 16,
			"minutes": 33,
			"month": 2,
			"seconds": 1,
			"time": 1520325181000,
			"timezoneOffset": -480,
			"year": 118
		},
		"demId": 1,
		"email": "515957099@qq.com",
		"entryDate": null,
		"fromType": 0,
		"fullname": "高月",
		"hasSyncToWx": 0,
		"isExpired": 0,
		"isLock": 0,
		"jobId": 10000006904719,
		"jobName": "总经理助理",
		"mobile": "",
		"orgId": 10000000000029,
		"orgName": "总经办",
		"password": "a4ayc/80/OGda4BO/1o/V0etpOqiLx1JwB5S3beHW0s=",
		"phone": "",
		"picture": "",
		"pwdUpdTime": {
			"date": 13,
			"day": 5,
			"hours": 16,
			"minutes": 37,
			"month": 3,
			"seconds": 45,
			"time": 1523608665000,
			"timezoneOffset": -480,
			"year": 118
		},
		"sex": "0",
		"status": 1,
		"superName": "向守兵",
		"superUserId": 10000000000001,
		"userId": 10000006904734,
		"userStatus": "正式员工",
		"weixinid": ""
	}, {
		"account": "000819",
		"createTime": {
			"date": 6,
			"day": 2,
			"hours": 13,
			"minutes": 55,
			"month": 2,
			"seconds": 51,
			"time": 1520315751000,
			"timezoneOffset": -480,
			"year": 118
		},
		"demId": 0,
		"email": "515957099@qq.com",
		"entryDate": null,
		"fromType": 0,
		"fullname": "郭亚男",
		"hasSyncToWx": 0,
		"isExpired": 0,
		"isLock": 0,
		"jobId": 0,
		"jobName": "",
		"mobile": "",
		"orgId": 0,
		"orgName": "",
		"password": "a4ayc/80/OGda4BO/1o/V0etpOqiLx1JwB5S3beHW0s=",
		"phone": "",
		"picture": "",
		"pwdUpdTime": {
			"date": 6,
			"day": 2,
			"hours": 13,
			"minutes": 55,
			"month": 2,
			"seconds": 51,
			"time": 1520315751000,
			"timezoneOffset": -480,
			"year": 118
		},
		"sex": "1",
		"status": 1,
		"superName": "",
		"superUserId": 0,
		"userId": 10000006902529,
		"userStatus": "正式员工",
		"weixinid": ""
	}],
	"pageParam": {
		"page": 1,
		"count": 224,
		"pageCount": 15,
		"pageSize": 15
	}
}